TDS/Binaries/Win64/TDS.exe	2022-04-27T19:16:20.309Z
TDS/Binaries/Win64/OpenImageDenoise.dll	2022-02-21T10:23:21.032Z
TDS/Binaries/Win64/tbb12.dll	2022-02-21T10:23:21.033Z
Engine/Extras/Redist/en-us/UE4PrereqSetup_x64.exe	2022-02-21T10:12:35.017Z
Engine/Binaries/ThirdParty/Oculus/OVRPlugin/OVRPlugin/Win64/OVRPlugin.dll	2022-02-21T10:05:22.379Z
Engine/Binaries/ThirdParty/DbgHelp/dbghelp.dll	2022-02-21T10:05:07.226Z
Engine/Binaries/ThirdParty/PhysX3/Win64/VS2015/PxFoundationPROFILE_x64.dll	2022-02-21T10:05:36.855Z
Engine/Binaries/ThirdParty/PhysX3/Win64/VS2015/PxPvdSDKPROFILE_x64.dll	2022-02-21T10:05:37.334Z
Engine/Binaries/ThirdParty/PhysX3/Win64/VS2015/PhysX3PROFILE_x64.dll	2022-02-21T10:05:36.069Z
Engine/Binaries/ThirdParty/PhysX3/Win64/VS2015/PhysX3CookingPROFILE_x64.dll	2022-02-21T10:05:36.031Z
Engine/Binaries/ThirdParty/PhysX3/Win64/VS2015/PhysX3CommonPROFILE_x64.dll	2022-02-21T10:05:35.100Z
Engine/Binaries/ThirdParty/PhysX3/Win64/VS2015/APEX_ClothingPROFILE_x64.dll	2022-02-21T10:05:30.962Z
Engine/Binaries/ThirdParty/PhysX3/Win64/VS2015/APEX_LegacyPROFILE_x64.dll	2022-02-21T10:05:32.555Z
Engine/Binaries/ThirdParty/PhysX3/Win64/VS2015/ApexFrameworkPROFILE_x64.dll	2022-02-21T10:05:33.346Z
Engine/Binaries/ThirdParty/PhysX3/Win64/VS2015/NvClothPROFILE_x64.dll	2022-02-21T10:05:33.970Z
Engine/Binaries/ThirdParty/Ogg/Win64/VS2015/libogg_64.dll	2022-02-21T10:05:22.409Z
Engine/Binaries/ThirdParty/Vorbis/Win64/VS2015/libvorbis_64.dll	2022-02-21T10:06:00.344Z
Engine/Binaries/ThirdParty/Vorbis/Win64/VS2015/libvorbisfile_64.dll	2022-02-21T10:06:00.344Z
Engine/Binaries/ThirdParty/NVIDIA/NVaftermath/Win64/GFSDK_Aftermath_Lib.x64.dll	2022-02-21T10:05:22.154Z
Engine/Binaries/ThirdParty/OpenXR/win64/openxr_loader.dll	2022-02-21T10:05:22.620Z
Engine/Binaries/ThirdParty/OpenVR/OpenVRv1_5_17/Win64/openvr_api.dll	2022-02-21T10:05:22.522Z
Engine/Binaries/ThirdParty/NVIDIA/GeForceNOW/Win64/GfnRuntimeSdk.dll	2022-02-21T10:05:22.139Z
Engine/Binaries/ThirdParty/Windows/WinPixEventRuntime/x64/WinPixEventRuntime.dll	2022-02-21T10:06:00.557Z
Engine/Binaries/ThirdParty/Windows/XAudio2_9/x64/xaudio2_9redist.dll	2022-02-21T10:06:00.952Z
TDS.exe	2022-04-27T19:23:08.615Z
